<svg xmlns="http://www.w3.org/2000/svg" width="203.261" height="187.962" viewBox="0 0 203.261 187.962">
  <g id="Grupo_710" data-name="Grupo 710" transform="translate(-157.533 -88.397)">
    <g id="Grupo_709" data-name="Grupo 709">
      <g id="Grupo_708" data-name="Grupo 708">
        <path id="Caminho_343" data-name="Caminho 343" d="M276.443,132.7s41.227-16.134,62.344,10.915,10.5,66.377-24.38,92.951S216.652,267.7,216.652,267.7s-63.114-44.132-58.369-114.364,65.961-61.69,65.961-61.69S267.665,93.786,276.443,132.7Z" fill="#f7c1a9"/>
        <path id="Caminho_344" data-name="Caminho 344" d="M282.417,118.392s-23.5-48.191-90.291-22.406a.454.454,0,0,0,.267.866c18.6-4.336,69.963-11.595,83.958,35.947,0,0,52.423-21.421,69.989,25.463,0,0,13.291,28.877-16.659,63.756,0,0-27.8,36.4-112.978,45.368,0,0-26.033-16.175-47.643-61.164a99.317,99.317,0,0,1-7.218-21.977c-1.085-5.394-1.63-9.5-2.766-9.364-1.86.229-2.513,4.633.779,17.253,5.213,19.984,16.029,49.472,53.057,84.225,0,0,55.857-3.033,90.736-22.747s56.11-42.715,57.121-78.6S331.7,105.755,282.417,118.392Z" fill="#2a633b"/>
      </g>
    </g>
    <path id="Caminho_345" data-name="Caminho 345" d="M328.876,193.172c-3.453-.4-6.924-.642-10.383-.98-1.649-.161-3.3-.346-4.945-.485a14.842,14.842,0,0,1-4.22-.632c-2.63-1.036-2.884-4.39-4.157-6.57a14.97,14.97,0,0,0-5.063-5.035c-2.553-1.6-5.348-1.87-8.164-2.752a13.433,13.433,0,0,1-6.845-5.193c-1.585-2.091-3.234-4.432-5.756-5.453-2.26-.915-4.936-.683-6.472,1.382a7.33,7.33,0,0,0-.942,5.64c-2.149-2.859-4.063-5.892-6.074-8.846-5.214-7.656-11.715-14.957-19.508-20.063-4.495-2.945-9.471-5.012-14.356-7.205a103.528,103.528,0,0,1-12.845-6.808,101.1,101.1,0,0,1-13-9.754c-4.051-3.574-7.568-7.584-11.237-11.533a.521.521,0,0,0-.816.629,65.134,65.134,0,0,0,8.573,10.29,84.77,84.77,0,0,0,10.2,8.845,89.082,89.082,0,0,0,11.544,7.271c4.443,2.343,9.105,4.208,13.648,6.339,8.66,4.061,17.052,9.533,22.322,17.7,4.576,7.089,8.752,14.961,15.017,20.738a36.144,36.144,0,0,0,6.109,4.447,32.154,32.154,0,0,1,6.659,4.61c1.6,1.612,2.988,3.8,2.814,6.162a4.926,4.926,0,0,1-3.512,4.555c-.037.009-.067.024-.1.036a12.024,12.024,0,0,0,.612-3.74,9.648,9.648,0,0,0-1.8-5.935,4.643,4.643,0,0,0-5.122-1.789,5.764,5.764,0,0,0-2.256-3.464,4.73,4.73,0,0,0-4.19-.04c-.978-2.473-3.056-5.174-6.028-4.08a5.036,5.036,0,0,0-.566.25,4.22,4.22,0,0,0-4.845-3.206c-3.221.453-4.851,3.163-5.628,6.069-.02.075-.034.152-.053.226a2.332,2.332,0,0,0-.348-.321c-.169-.125-.344-.24-.514-.363s-.339-.246-.507-.371c-.094-.071-.189-.142-.282-.214l-.088-.069c-.676-.534-1.346-1.077-1.993-1.646a40.078,40.078,0,0,1-3.524-3.543c.158-.158.325-.305.48-.466a17.159,17.159,0,0,0,2.37-3.172c.331-.562.657-1.113,1.01-1.662.369-.574.645-1.2.972-1.8a.52.52,0,0,0-.9-.524,16.69,16.69,0,0,1-2.264,2.962c-.891.905-1.806,1.783-2.7,2.68-.881.879-1.827,1.684-2.766,2.5-.762.661-1.561,1.276-2.279,1.976a42.276,42.276,0,0,1-1.773-3.865c-.4-.992-.774-1.991-1.146-2.993a17.889,17.889,0,0,1-1-2.817c-.178-.975.849-1.931,1.195-2.827a8.861,8.861,0,0,0,.607-2.822c.052-1.1-1.588-1.065-1.687,0a4.44,4.44,0,0,1-1.133,2.7c-.517.567-1.142.952-1.393,1.721-.5,1.533.659,3.367,1.239,4.734a59.061,59.061,0,0,0,4.871,9c1.9,2.922,4.31,5.237,6.534,7.882,1.955,2.326,4.283,6.205,2.15,9.17-1.757,2.443-5.505,2.4-8.149,1.925a19.513,19.513,0,0,1-8.718-3.817c-4.874-3.94-6.112-10.979-12.18-13.606-3.31-1.433-6.956-1.672-10.411-2.6a15.516,15.516,0,0,1-4.745-2.268,21.152,21.152,0,0,1-4.3-3.732c-.429-.525-1.153.22-.741.74a20.26,20.26,0,0,0,3.476,3.732,23.355,23.355,0,0,0,4.182,2.557c3.083,1.484,6.342,2,9.592,2.963a12.947,12.947,0,0,1,6.457,4.333,10.019,10.019,0,0,1-2.173.838,35.46,35.46,0,0,1-3.562.8c-1.178.177-2.367.28-3.546.452-1.236.18-2.469.208-3.706.334-.583.059-.839,1-.152,1.12,1.265.214,2.587.286,3.867.376a15.89,15.89,0,0,0,3.71-.21c.6,4.914-.58,9.724-1.21,14.572a33.07,33.07,0,0,0-.2,9.2.882.882,0,0,0-.379.527c-.653,2.547-3.156,5.012-6,3.995-3.046-1.09-4.053-4.975-4.253-7.838-.492-7.065,1.863-14.108.853-21.131a1.035,1.035,0,0,0-.455-1.658,7.889,7.889,0,0,1-4.075-3.109,16.51,16.51,0,0,0-4.168-3.971c-1.825-1.1-3.842-1.849-5.5-3.218a16.523,16.523,0,0,1-3.739-4.53c-4.022-6.961-4.149-15.282-7.238-22.6a20.154,20.154,0,0,0-7.818-9.641c-.667-.417-1.249.612-.611,1.046,3.386,2.305,5.44,6.161,6.767,9.948,1.346,3.843,2.114,7.83,3.1,11.771a37.272,37.272,0,0,0,4.339,11.153,18.257,18.257,0,0,0,3.607,4.195,35.234,35.234,0,0,0,5.536,3.335c2,1.131,3.235,2.787,4.678,4.513a7.827,7.827,0,0,0,4.186,2.957c.242,4.3-.455,8.533-1,12.795-.528,4.11-.959,8.527.535,12.5,1.137,3.022,3.579,5.6,7.041,5.331a7.048,7.048,0,0,0,5.431-3.218c.089.226.159.459.261.681,1.54,3.373,4.467,5.9,8.3,5.861a8.334,8.334,0,0,0,6.984-3.813,7.191,7.191,0,0,0,.853,1.2,8.545,8.545,0,0,0,9.709,1.976c3.169-1.464,4.776-4.7,5.084-8.042a61.691,61.691,0,0,0-.075-7.039c-.059-2.593-.075-5.176.111-7.764a.892.892,0,0,0-.073-.426c.144-.075.295-.135.436-.219a6.891,6.891,0,0,0,2.822-8.147,13.266,13.266,0,0,0-3.447-5.32.649.649,0,0,0,.09-.137,6.342,6.342,0,0,0,.125-3.285c-.122-1.074-.287-2.144-.507-3.2-.121-.578-.262-1.15-.419-1.717.35.4.692.808,1.065,1.188a24.031,24.031,0,0,0,1.894,1.744,7.677,7.677,0,0,0,2.434,1.641.963.963,0,0,0,.519,0,16.283,16.283,0,0,0,.671,7.826c.941,2.616,2.974,5.7,5.669,6.747a.878.878,0,0,0,.559.023,11.186,11.186,0,0,0,5.155,6.576.665.665,0,0,0,.466.064c1.565,3.569,4.3,6.429,8.476,7.245.074.036.144.079.224.112.19.077.383.143.574.215l-.241-.1a2.51,2.51,0,0,0,.559.214,1.963,1.963,0,0,0,.519.054,13.688,13.688,0,0,0,2.589,1.652,22.662,22.662,0,0,0,15.591,1.649.6.6,0,0,0,.034.053q2.313,2.331,4.511,4.769c1.459,1.62,2.829,3.347,4.369,4.889.5.5,1.409-.156,1-.772a45.539,45.539,0,0,0-4.219-5.135q-2.151-2.386-4.415-4.666a.513.513,0,0,0-.537-.531c-4.037-.017-7.952.28-11.895-.864-3.872-1.123-7.259-3.251-9.063-6.955a16.962,16.962,0,0,1-1.328-10.76,15.285,15.285,0,0,1,1.963-4.934c.97-1.542,2.471-4.054,4.62-3.514,2.133.537,3.209,3.09,3.378,5.084.2,2.378-.775,3.972-1.922,5.929a1.072,1.072,0,0,0,1.194,1.554c1.417-.218,2.514,1.069,3.274,2.072.5.654,1.619.037,1.127-.659a16.8,16.8,0,0,0-1.469-1.872c3.653-.98,5.451-5.21,4.758-8.747-.886-4.522-4.869-7.5-8.581-9.722a49.531,49.531,0,0,1-6.431-4.2,33.138,33.138,0,0,1-2.568-2.388,12.4,12.4,0,0,1-1.658-3.339c-.624-2.013-.9-5.164,1.381-6.281,2.7-1.322,5.2.987,6.646,3.05,1.543,2.195,2.789,4.445,5.017,6.041,2.244,1.607,4.759,2.087,7.424,2.528,2.519.417,4.9.963,6.768,2.819,1.824,1.81,2.407,4.039,3.3,6.354.85,2.2,2.14,3.984,4.469,4.741,2.847.925,6.223.7,9.177.843,3.544.175,7.084.461,10.631.57C330.022,194.95,329.96,193.3,328.876,193.172Zm-79.784-5.512a27.8,27.8,0,0,1-4.212-5.577,11.821,11.821,0,0,0,2.77-1.569c.3-.216.577-.46.86-.7.429,1.467.825,2.946,1.118,4.446a29.2,29.2,0,0,1,.428,2.986c.043.473.048.964.083,1.448C249.786,188.354,249.435,188.009,249.092,187.66Zm-13.623,33.546a.83.83,0,0,0-.206.412c-.673,3.753-4.442,5.492-7.972,4.485a6.338,6.338,0,0,1-4.066-3.195,15.008,15.008,0,0,1-1.153-4.966c-.473-7.9,1.815-15.736.549-23.6a17.124,17.124,0,0,0,5.39-2.254c.172.243.346.484.513.74a31.575,31.575,0,0,0,6.313,7.653c.433.354.88.686,1.333,1.007-.441,4.534-.647,9.046-.8,13.6A31.83,31.83,0,0,0,235.469,221.206Zm12.947,3.046a7.106,7.106,0,0,1-5.9,1.844,5.825,5.825,0,0,1-4.743-3.861,17.262,17.262,0,0,1-.426-6.152c.154-4.583.272-9.134.167-13.715a19.029,19.029,0,0,0,5.944,2.392A15.6,15.6,0,0,0,250,204.9c-.518,4.419.675,8.742.605,13.167C250.566,220.344,250.135,222.626,248.416,224.252Zm13.654-26.97a11.569,11.569,0,0,1-1.813-2.752,13.145,13.145,0,0,1-1.172-7.055c.22-2.253.837-5.04,2.48-6.7a3.341,3.341,0,0,1,3.463-1.035,2.8,2.8,0,0,1,1.958,2.654c-1.975,1.649-3,4.616-3.425,6.965a28.19,28.19,0,0,0-.237,9.057A10.507,10.507,0,0,1,262.07,197.282Zm6.128-.793a22.456,22.456,0,0,0,.586,9.019c-3.178-3.544-3.76-8.5-3.41-13.2a14.622,14.622,0,0,1,2.064-7.241c.733-1.071,1.891-2.166,3.3-1.884,1.506.3,2.267,1.564,2.769,2.889C269.875,188.211,268.752,192.6,268.2,196.489Zm8.12-2.953a18.281,18.281,0,0,0,.531,19.02,11.135,11.135,0,0,1-5.122-3.653c-2.1-2.724-2.23-6.6-2.12-9.9.11-3.282.859-6.952,3.128-9.461a7.076,7.076,0,0,1,3.8-2.391c2.039-.384,2.622,1.014,3.213,2.556A11.748,11.748,0,0,0,276.318,193.536Z" fill="#2a633b"/>
    <path id="Caminho_346" data-name="Caminho 346" d="M305.994,199.638a4.867,4.867,0,0,0-2.03-2.739.981.981,0,0,0-1.331,1.331c.428.845,1.174,1.5,1.616,2.351a13.314,13.314,0,0,1,.924,2.479c.591,2.073.052,4.47-.364,6.543-.127.636.836.912.98.27a34.231,34.231,0,0,0,.66-3.607,16.576,16.576,0,0,0,.112-1.808c0-.6.068-1.192.053-1.785A8.717,8.717,0,0,0,305.994,199.638Z" fill="#2a633b"/>
  </g>
</svg>
