<svg xmlns="http://www.w3.org/2000/svg" width="81" height="81.619" viewBox="0 0 81 81.619">
  <g id="Grupo_644" data-name="Grupo 644" transform="translate(-11608.5 1599.31)">
    <line id="Linha_63" data-name="Linha 63" y1="60" x2="14" transform="translate(11642.5 -1588.5)" fill="none" stroke="#fed70d" stroke-linecap="round" stroke-width="18"/>
    <line id="Linha_64" data-name="Linha 64" x2="63" transform="translate(11617.5 -1560.5)" fill="none" stroke="#fed70d" stroke-linecap="round" stroke-width="18"/>
  </g>
</svg>
