<svg xmlns="http://www.w3.org/2000/svg" xmlns:xlink="http://www.w3.org/1999/xlink" width="342" height="246.5" viewBox="0 0 342 246.5">
  <defs>
    <linearGradient id="linear-gradient" x1="0.5" x2="0.5" y2="1" gradientUnits="objectBoundingBox">
      <stop offset="0" stop-color="#faf8cc"/>
      <stop offset="1" stop-color="#fff" stop-opacity="0"/>
    </linearGradient>
  </defs>
  <g id="Grupo_881" data-name="Grupo 881" transform="translate(-492.871 -1022.453)">
    <path id="Caminho_433" data-name="Caminho 433" d="M0,0H342V246.5H0Z" transform="translate(834.871 1268.953) rotate(180)" fill="url(#linear-gradient)"/>
  </g>
</svg>
