<?xml version="1.0" encoding="utf-8"?>
<!-- Generator: Adobe Illustrator 25.0.0, SVG Export Plug-In . SVG Version: 6.00 Build 0)  -->
<svg version="1.1" id="Layer_1" xmlns="http://www.w3.org/2000/svg" xmlns:xlink="http://www.w3.org/1999/xlink" x="0px" y="0px"
	 viewBox="0 0 26.1 45.1" style="enable-background:new 0 0 26.1 45.1;" xml:space="preserve">
<style type="text/css">
	.st0{fill:none;stroke:#F3F5F1;stroke-width:5;stroke-linecap:round;}
</style>
<g id="Grupo_616" transform="translate(-1540.464 -813.216)">
	<g id="Grupo_525" transform="translate(1544 816.751)">
		<line id="Linha_36" class="st0" x1="0" y1="19" x2="19" y2="38"/>
		<line id="Linha_37" class="st0" x1="0" y1="19" x2="19" y2="0"/>
	</g>
</g>
</svg>
