<svg xmlns="http://www.w3.org/2000/svg" xmlns:xlink="http://www.w3.org/1999/xlink" width="1535.998" height="344.352" viewBox="0 0 1535.998 344.352">
  <defs>
    <linearGradient id="linear-gradient" x1="0.5" x2="0.5" y2="1" gradientUnits="objectBoundingBox">
      <stop offset="0" stop-color="#faf8cc"/>
      <stop offset="1" stop-color="#fff" stop-opacity="0"/>
    </linearGradient>
  </defs>
  <g id="Grupo_879" data-name="Grupo 879" transform="translate(-492.869 -994.799)">
    <path id="Caminho_433" data-name="Caminho 433" d="M0,0H1536V344.352H0Z" transform="translate(2028.868 1339.15) rotate(180)" fill="url(#linear-gradient)"/>
  </g>
</svg>
