<svg xmlns="http://www.w3.org/2000/svg" width="19.999" height="24" viewBox="0 0 19.999 24">
  <g id="notification" transform="translate(-42.675)">
    <g id="Grupo_469" data-name="Grupo 469" transform="translate(42.675)">
      <g id="Grupo_468" data-name="Grupo 468">
        <path id="Caminho_245" data-name="Caminho 245" d="M62.6,20.243l-1.717-2.862a8.5,8.5,0,0,1-1.212-4.374V10.5a7.009,7.009,0,0,0-5-6.7V2a2,2,0,0,0-4,0V3.795a7.009,7.009,0,0,0-5,6.7v2.507a8.507,8.507,0,0,1-1.211,4.373l-1.717,2.862a.5.5,0,0,0,.428.758h19a.5.5,0,0,0,.429-.757Z" transform="translate(-42.675 0)" fill="#175732"/>
      </g>
    </g>
    <g id="Grupo_471" data-name="Grupo 471" transform="translate(49.525 22)">
      <g id="Grupo_470" data-name="Grupo 470">
        <path id="Caminho_246" data-name="Caminho 246" d="M188.815,469.333a3.479,3.479,0,0,0,6.3,0Z" transform="translate(-188.815 -469.333)" fill="#175732"/>
      </g>
    </g>
  </g>
</svg>
