<svg xmlns="http://www.w3.org/2000/svg" width="14" height="14" viewBox="0 0 14 14">
  <path id="Caminho_420" data-name="Caminho 420" d="M2373.516,520.5a7,7,0,1,0,7,7A7,7,0,0,0,2373.516,520.5Zm4.014,5.029-4.749,4.749a.748.748,0,0,1-1.06,0l-2.236-2.234a.75.75,0,0,1,1.061-1.06l1.705,1.7,4.219-4.218a.75.75,0,0,1,1.06,1.06Z" transform="translate(-2366.516 -520.501)" fill="#fff"/>
</svg>
