<svg xmlns="http://www.w3.org/2000/svg" width="23.334" height="23.334" viewBox="0 0 23.334 23.334">
  <g id="Grupo_620" data-name="Grupo 620" transform="translate(-1553.333 -1260.833)">
    <line id="Linha_40" data-name="Linha 40" x1="25" transform="translate(1556.161 1281.339) rotate(-45)" fill="none" stroke="#f3f5f1" stroke-linecap="round" stroke-width="4"/>
    <line id="Linha_41" data-name="Linha 41" x1="25" transform="translate(1556.161 1263.661) rotate(45)" fill="none" stroke="#f3f5f1" stroke-linecap="round" stroke-width="4"/>
  </g>
</svg>
