<svg xmlns="http://www.w3.org/2000/svg" width="10" height="10" viewBox="0 0 10 10">
  <g id="Grupo_446" data-name="Grupo 446" transform="translate(-1008 -4236.5)">
    <line id="Linha_34" data-name="Linha 34" x1="9" transform="translate(1008.5 4241.5)" fill="none" stroke="#a8d6ad" stroke-linecap="round" stroke-width="1"/>
    <line id="Linha_35" data-name="Linha 35" x1="9" transform="translate(1013 4237) rotate(90)" fill="none" stroke="#a8d6ad" stroke-linecap="round" stroke-width="1"/>
  </g>
</svg>
