<svg xmlns="http://www.w3.org/2000/svg" width="319.118" height="309.447" viewBox="0 0 319.118 309.447">
  <g id="Grupo_19" data-name="Grupo 19" transform="translate(-322 -542)">
    <path id="Caminho_19" data-name="Caminho 19" d="M0,0H319.118V309.447H0Z" transform="translate(322 542)" fill="#9a9a9a"/>
    <text id="imagem" transform="translate(482 705.194)" fill="#dbdbdb" font-size="24" font-family="HelveticaNeue, Helvetica Neue"><tspan x="-48.228" y="0">IMAGEM</tspan></text>
    <rect id="Retângulo_21" data-name="Retângulo 21" width="24" height="24" transform="translate(352 797.194)" fill="#9a9a9a"/>
    <rect id="Retângulo_22" data-name="Retângulo 22" width="24" height="24" transform="translate(387 797.194)" fill="#9a9a9a"/>
  </g>
</svg>
