<svg xmlns="http://www.w3.org/2000/svg" width="79" height="76.805" viewBox="0 0 79 76.805">
  <g id="Grupo_762" data-name="Grupo 762" transform="translate(-11678 -5024.695)">
    <g id="Grupo_752" data-name="Grupo 752" transform="translate(290 1460.586)">
      <path id="Caminho_401" data-name="Caminho 401" d="M-1102.951,348.181a1.663,1.663,0,0,1-1.535-1.019l-4.217-10.06-7.946,7.475a1.661,1.661,0,0,1-1.138.452,1.68,1.68,0,0,1-.677-.144,1.662,1.662,0,0,1-.986-1.557l.237-10.9-10.3,3.6a1.676,1.676,0,0,1-.549.092,1.656,1.656,0,0,1-1.235-.55,1.66,1.66,0,0,1-.268-1.822l4.653-9.865-10.87-.9a1.665,1.665,0,0,1-1.445-1.144,1.662,1.662,0,0,1,.5-1.775l8.262-7.119-9.562-5.246a1.66,1.66,0,0,1-.855-1.632,1.663,1.663,0,0,1,1.175-1.421l10.444-3.142-6.6-8.683a1.662,1.662,0,0,1-.118-1.838,1.663,1.663,0,0,1,1.439-.832,1.444,1.444,0,0,1,.211.014l10.82,1.376-2.5-10.617a1.667,1.667,0,0,1,.642-1.727,1.66,1.66,0,0,1,.978-.317,1.669,1.669,0,0,1,.863.241l9.325,5.66,2.035-10.716a1.659,1.659,0,0,1,1.287-1.317,1.581,1.581,0,0,1,.346-.036,1.665,1.665,0,0,1,1.367.715l6.217,8.963,6.217-8.963a1.665,1.665,0,0,1,1.367-.715,1.581,1.581,0,0,1,.346.036,1.662,1.662,0,0,1,1.287,1.317l2.035,10.716,9.325-5.66a1.661,1.661,0,0,1,.864-.241,1.664,1.664,0,0,1,.978.317,1.663,1.663,0,0,1,.64,1.727l-2.5,10.617,10.822-1.376a1.417,1.417,0,0,1,.209-.014,1.664,1.664,0,0,1,1.44.832,1.659,1.659,0,0,1-.116,1.838l-6.6,8.683,10.446,3.142a1.666,1.666,0,0,1,1.175,1.421,1.663,1.663,0,0,1-.855,1.632l-9.563,5.246,8.264,7.119a1.669,1.669,0,0,1,.5,1.775,1.666,1.666,0,0,1-1.445,1.144l-10.87.9,4.653,9.865a1.663,1.663,0,0,1-.268,1.822,1.66,1.66,0,0,1-1.237.55,1.657,1.657,0,0,1-.547-.092l-10.3-3.6.239,10.9a1.665,1.665,0,0,1-.986,1.557,1.692,1.692,0,0,1-.677.144,1.665,1.665,0,0,1-1.14-.452l-7.944-7.475-4.219,10.06A1.661,1.661,0,0,1-1102.951,348.181Z" transform="translate(12530.453 3292.087)" fill="#f6de69"/>
      <g id="Grupo_742" data-name="Grupo 742" transform="translate(11388 3564.109)">
        <path id="Caminho_402" data-name="Caminho 402" d="M-1101.553,347.851c-.725-.061-1.025-1.313-1.255-1.864l-1.447-3.449-2.222-5.3c-.362-.865-2.409-.55-2.952-.038l-7.146,6.722c-.1.1-.8.6-.8.751l.6-.126a1.04,1.04,0,0,1-.275-.367,1.419,1.419,0,0,1-.164-.574c-.007-.081-.005-.128-.007-.2-.009-.18.007-.367.012-.547l.123-5.625.1-4.675c.017-.789-2.064-.439-2.412-.317l-9.32,3.255c-.235.083-.486.151-.716.249-.045.021-.161.033-.194.069.007-.009-.05.017-.05.017-.144.048-.01.035.4-.04.493.043.542-.042.14-.256-.168-.616-.49-.832-.218-1.526.068-.175.161-.341.241-.51l2.359-5,2.037-4.319c.2-.427-.51-.616-.787-.638l-9.954-.827c-.431-.036-.9.022-1.232-.287-.782-.723-.27-1.659.367-2.208l4.219-3.635,3.689-3.179a.352.352,0,0,0-.059-.633l-8.759-4.8a3.05,3.05,0,0,1-1.237-.876,1.188,1.188,0,0,1,.722-1.841l5.331-1.606,4.665-1.4c.27-.081.941-.4.652-.777l-5.975-7.857a5.19,5.19,0,0,1-.815-1.159,1.684,1.684,0,0,1,.1-1.17c.19-.644.35.073-.576-.22a3.339,3.339,0,0,0,.559.073l5.485.7,4.736.6c.353.045,2.49,0,2.308-.767l-2.25-9.548c-.083-.353-.2-.711-.251-1.069a1.54,1.54,0,0,1,.019-.737c.121-.421.351-.3-.119-.445-1.028-.306-.284-.036-.263,0,.057.1.37.225.469.284l4.81,2.919,4,2.428c.633.384,2.715.332,2.891-.6l1.841-9.7a4.464,4.464,0,0,1,.315-1.31c.028-.048.282-.445.32-.382l-.466.052c-.542-.045-.612.035-.213.235a1.992,1.992,0,0,0,.2.244c.12.144.216.311.322.464l3.153,4.544,2.72,3.923c.505.727,2.587.343,3.024-.289l5.627-8.112c.026-.04.818-1.05.813-1.064l-.452.064q-.763-.052-.24.222c.04.13.26.334.31.452a2.555,2.555,0,0,1,.071.28c.05.18.071.372.106.554l1.031,5.433.89,4.689c.163.857,2.241.481,2.72.189l8.439-5.122c.213-.128.448-.244.649-.393.049-.036.135-.061.177-.107.009-.01.036-.016.045-.028l.014-.009q.371-.226-.86.045c0-.028.459.422.447.4a1.437,1.437,0,0,1,.213.606,1.748,1.748,0,0,1,0,.426,5.407,5.407,0,0,1-.13.548l-1.268,5.383-1.094,4.648c-.169.716,1.182.7,1.589.649l9.908-1.261c.234-.029.467-.052.7-.088a.848.848,0,0,1,.173-.022c.01,0,.024-.005.036,0-.49-.061-.182.012-.071.26a1.8,1.8,0,0,1-.289,2.154l-3.345,4.4-2.948,3.878c-.222.292.277.516.462.571l9.563,2.879a2.427,2.427,0,0,1,1.253.559,1.337,1.337,0,0,1-.547,2.1l-4.881,2.679-4.271,2.343c-.163.088-.626.407-.346.649l7.568,6.518a4.3,4.3,0,0,1,1.052,1.033,1.421,1.421,0,0,1,.014,1.239c-.026.054-.268.446-.312.395-.068-.083.528,0,.412-.085-.069-.048-.412.035-.493.042l-5.506.457-4.854.4c-.393.033-1.754.265-1.436.938l4.212,8.929a4.173,4.173,0,0,1,.521,1.315c.009.1-.344,1.282-.443,1.14-.029-.042.891.019.836-.112-.031-.071-.457-.159-.533-.185l-5.221-1.824-4.506-1.573c-.516-.182-2.654-.182-2.635.7l.213,9.745c.009.379.055.78.026,1.159a5.734,5.734,0,0,1-.15.635l-.094.137q-.368.426.585.076c0-.031-.111-.073-.131-.111a2.385,2.385,0,0,0-.424-.4l-4.063-3.822-3.405-3.2c-.554-.521-2.68-.535-3.025.289l-2.222,5.3-1.447,3.449c-.147.351-.291.706-.443,1.055-.031.071-.055.149-.092.218l-.016.038c-.175.325-.614.462-.066.415-.367.031-1.562.209-1.509.777s1.3.505,1.628.478a3.474,3.474,0,0,0,3.237-2.182l1.426-3.4,2.557-6.1-3.024.289c2.563,2.41,5.1,4.854,7.691,7.234a3.878,3.878,0,0,0,3.293.972c1.439-.175,2.77-.95,2.827-2.514.064-1.782-.079-3.6-.118-5.38l-.119-5.452-2.635.7c3.322,1.159,6.634,2.357,9.969,3.481,2.026.684,6.229-.123,4.914-3.09-.725-1.639-1.531-3.248-2.3-4.869l-2.327-4.931-1.436.938,10.446-.867a4.426,4.426,0,0,0,2.822-.991,2.006,2.006,0,0,0-.1-2.973c-1.31-1.2-2.7-2.327-4.047-3.488l-4.132-3.559-.344.649,9.188-5.041a2.68,2.68,0,0,0,1.609-1.767,2.184,2.184,0,0,0-1.77-2.417c-1.682-.552-3.4-1.021-5.092-1.531l-5.222-1.573.46.573,6.345-8.342a2.142,2.142,0,0,0,.464-2.256c-.58-1.322-2.189-1.507-3.461-1.374-1.763.185-3.519.448-5.277.671l-5.409.689,1.587.649q1.212-5.139,2.421-10.276c.722-3.064-3-3.648-5.143-2.466-1.568.862-3.071,1.864-4.6,2.791l-4.663,2.831,2.72.187c-.661-3.48-1.272-6.973-1.983-10.443-.564-2.76-4.689-2.717-6.181-.737-1.04,1.383-1.979,2.853-2.966,4.274l-3.218,4.643,3.025-.289c-2.019-2.91-4-5.857-6.06-8.735-1.44-2.005-5.663-1.7-6.234.926-.367,1.692-.647,3.41-.971,5.111l-1.054,5.549,2.893-.6c-3.009-1.825-6-3.687-9.027-5.478-1.863-1.1-6.17-.706-5.656,2.287.3,1.758.825,3.5,1.235,5.239l1.249,5.309,2.308-.767c-3.478-.443-6.954-.907-10.436-1.329a5.42,5.42,0,0,0-3.315.439,2.1,2.1,0,0,0-.772,3.185c1.031,1.448,2.158,2.838,3.234,4.253l3.3,4.341.652-.777-10.036,3.019a3.279,3.279,0,0,0-2.035,1.294,2.059,2.059,0,0,0,.943,2.857c1.526.9,3.111,1.706,4.663,2.559l4.781,2.623-.061-.633-7.939,6.84a2.368,2.368,0,0,0-1.069,2.114,2.508,2.508,0,0,0,2.473,1.9c1.76.2,3.537.294,5.3.44l5.435.452-.787-.638c-1.5,3.17-3.023,6.33-4.488,9.513a2.179,2.179,0,0,0,.135,2.507c1.009,1.154,2.924.995,4.229.576,1.694-.543,3.365-1.175,5.044-1.761l5.149-1.8-2.412-.315c-.076,3.5-.187,7.011-.23,10.517-.036,2.993,3.992,3.21,5.828,1.6,1.336-1.173,2.6-2.443,3.892-3.661l3.973-3.737-2.954-.036,2.521,6.011,1.426,3.4a2.912,2.912,0,0,0,2.634,2.135,2.838,2.838,0,0,0,2.125-.431C-1100.448,348.179-1101.107,347.889-1101.553,347.851Z" transform="translate(1141.794 -272.308)" fill="#2a5537"/>
      </g>
      <g id="Grupo_744" data-name="Grupo 744" transform="translate(11414.118 3576.664)">
        <path id="Caminho_403" data-name="Caminho 403" d="M-1114.427,304.874c.87-1.31,1.5-2.3,2.17-3.26,2.568-3.649,5.489-7.1,7.622-10.988a51.317,51.317,0,0,1,6.326-8.719c1.661-1.933,4.087-2.111,6.38-1.746,2.059.329,3.2,2.125,3.944,3.881a3.128,3.128,0,0,1-.862,2.519,56.583,56.583,0,0,0-7.776,11.4c-1.118,2.042-2.914,3.7-4.324,5.6-.938,1.26-1.741,2.62-2.592,3.945-1.831,2.855-3.914,5.584-7.387,6.333-3.7.8-7.115.289-10.015-2.8a18.278,18.278,0,0,1-4.725-9.776,6.7,6.7,0,0,1,.192-3.494c.895-2.184,5.419-2.618,7.267-1.049a7.105,7.105,0,0,1,2.8,5.641A8.914,8.914,0,0,0-1114.427,304.874Z" transform="translate(1127.352 -279.24)" fill="#b2d4b0"/>
        <g id="Grupo_743" data-name="Grupo 743">
          <path id="Caminho_404" data-name="Caminho 404" d="M-1112.259,305.631c2.315-3.5,4.881-6.8,7.271-10.242,1.173-1.692,2.165-3.471,3.227-5.231a45.7,45.7,0,0,1,3.629-5.089c1.187-1.467,2.339-3.236,4.241-3.788a6.229,6.229,0,0,1,2.365-.164,2.182,2.182,0,0,1,1.58,1.021,5.348,5.348,0,0,1,1.158,2.158,3.276,3.276,0,0,1-1.057,2.27,46.952,46.952,0,0,0-3.715,4.776c-1.168,1.713-2.237,3.488-3.253,5.295a30.4,30.4,0,0,1-3.507,4.956c-2.5,2.921-4.07,6.568-6.759,9.314-2.229,2.277-6.021,3.7-9.14,2.448a10.169,10.169,0,0,1-4.129-3.682,17.2,17.2,0,0,1-2.459-4.93c-.588-1.851-1.374-4.445-.462-6.305.59-1.206,2.246-1.637,3.483-1.588,1.374.054,2.374,1.531,2.9,2.682a8.15,8.15,0,0,1,.614,2.807,8.794,8.794,0,0,0,.988,2.6c.258.6,1.163.862,1.744.955.232.038,1.519.135,1.27-.443a8.283,8.283,0,0,1-.99-2.736,7.263,7.263,0,0,0-.792-3.04,7.956,7.956,0,0,0-3.956-3.691c-2.556-1-7.681-1.187-8.518,2.256-.523,2.151.218,4.7.952,6.722a18.4,18.4,0,0,0,3.229,5.586,12.927,12.927,0,0,0,11.534,4.589,10.51,10.51,0,0,0,5.738-2.313,19.812,19.812,0,0,0,3.7-4.57,55.371,55.371,0,0,1,4.433-6.155,37.947,37.947,0,0,0,3.843-5.805,56.443,56.443,0,0,1,4.189-6.314c.723-.933,1.559-1.775,2.281-2.7a3.319,3.319,0,0,0,.851-2.473,7.074,7.074,0,0,0-3.509-4.288,10.181,10.181,0,0,0-6.369-.756c-2.621.521-4.059,2.577-5.634,4.556a54.43,54.43,0,0,0-4.554,6.811,73.1,73.1,0,0,1-4.888,7.1c-1.592,2.137-3.089,4.317-4.559,6.539C-1115.657,305.323-1112.832,306.5-1112.259,305.631Z" transform="translate(1126.7 -279.564)" fill="#2a5537"/>
        </g>
      </g>
    </g>
  </g>
</svg>
