<svg id="external-link" xmlns="http://www.w3.org/2000/svg" width="12.904" height="12.904" viewBox="0 0 12.904 12.904">
  <path id="Caminho_50" data-name="Caminho 50" d="M133.023,0h-4.437a.8.8,0,1,0,0,1.591H131.1l-4.2,4.2a.8.8,0,1,0,1.125,1.125l4.2-4.2V5.232a.8.8,0,0,0,1.591,0V.8A.8.8,0,0,0,133.023,0Z" transform="translate(-120.915)"/>
  <path id="Caminho_51" data-name="Caminho 51" d="M9.141,61.926H1.363V54.148h5.85l1.363-1.363H.682A.682.682,0,0,0,0,53.467v9.141a.682.682,0,0,0,.682.682H9.823a.682.682,0,0,0,.682-.682V54.713L9.141,56.077Z" transform="translate(0 -50.386)"/>
</svg>
