<svg xmlns="http://www.w3.org/2000/svg" width="6.933" height="13.865" viewBox="0 0 6.933 13.865">
  <path id="facebook" d="M11.854,2.3H13.12V.1A16.345,16.345,0,0,0,11.276,0,2.927,2.927,0,0,0,8.2,3.258V5.2H6.187V7.664H8.2v6.2H10.67v-6.2H12.6L12.909,5.2h-2.24V3.5c0-.712.192-1.2,1.185-1.2Z" transform="translate(-6.187)" fill="#f3f5f1"/>
</svg>
