<svg xmlns="http://www.w3.org/2000/svg" width="16" height="16" viewBox="0 0 16 16">
  <g id="Grupo_287" data-name="Grupo 287" transform="translate(-575 -256)">
    <path id="Caminho_92" data-name="Caminho 92" d="M0,0H16V16H0Z" transform="translate(575 256)"/>
    <g id="information-button" transform="translate(572 255)">
      <path id="Caminho_85" data-name="Caminho 85" d="M12.4,14.035q-.629.248-1,.378a2.647,2.647,0,0,1-.87.13,1.734,1.734,0,0,1-1.184-.372,1.2,1.2,0,0,1-.421-.943,3.424,3.424,0,0,1,.031-.454c.021-.154.055-.328.1-.523L9.583,10.4c.046-.178.086-.347.118-.5a2.235,2.235,0,0,0,.047-.437A.672.672,0,0,0,9.6,8.962a.83.83,0,0,0-.561-.139,1.471,1.471,0,0,0-.417.062c-.141.043-.264.083-.365.121L8.4,8.436q.515-.21.986-.359a2.913,2.913,0,0,1,.89-.15,1.7,1.7,0,0,1,1.167.365,1.214,1.214,0,0,1,.41.949q0,.121-.028.425a2.847,2.847,0,0,1-.1.559l-.522,1.848c-.043.148-.081.318-.115.508a2.684,2.684,0,0,0-.05.432.62.62,0,0,0,.165.5.923.923,0,0,0,.57.134,1.654,1.654,0,0,0,.432-.067,2.455,2.455,0,0,0,.349-.117Zm-.092-7.5a1.246,1.246,0,0,1-.879.339,1.259,1.259,0,0,1-.883-.339,1.083,1.083,0,0,1-.368-.823,1.094,1.094,0,0,1,.368-.825,1.25,1.25,0,0,1,.883-.343,1.236,1.236,0,0,1,.879.343,1.111,1.111,0,0,1,0,1.647Z" fill="#fff"/>
    </g>
  </g>
</svg>
