<svg xmlns="http://www.w3.org/2000/svg" width="168.042" height="205.386" viewBox="0 0 168.042 205.386">
  <g id="padlock" transform="translate(-36.548)">
    <path id="Caminho_265" data-name="Caminho 265" d="M200.5,97.442a13.5,13.5,0,0,0-9.92-4.084h-4.665V65.349q0-26.84-19.254-46.094T120.568,0q-26.843,0-46.1,19.255T55.218,65.349V93.358H50.551a13.944,13.944,0,0,0-14,14v84.021a13.942,13.942,0,0,0,14,14H190.585a13.942,13.942,0,0,0,14-14V107.361A13.5,13.5,0,0,0,200.5,97.442ZM157.91,93.358H83.226V65.349a35.976,35.976,0,0,1,10.941-26.4,37.332,37.332,0,0,1,52.806,0,35.981,35.981,0,0,1,10.938,26.4Z" fill="#175732"/>
  </g>
</svg>
