<svg xmlns="http://www.w3.org/2000/svg" width="371" height="193.17" viewBox="0 0 371 193.17">
  <g id="Grupo_615" data-name="Grupo 615" transform="translate(-30 -217)">
    <path id="Caminho_215" data-name="Caminho 215" d="M259.666,490.425s-33.793-51.387-92.4-22.929a.465.465,0,0,0,.273.886c19.03-4.437,71.6-11.866,85.917,36.785,0,0,53.647-21.921,71.622,26.059,0,0,13.6,29.55-17.048,65.244,0,0-28.451,37.245-115.615,46.427,0,0-26.64-16.553-48.755-62.592a101.6,101.6,0,0,1-7.387-22.49c-1.11-5.52-1.668-9.726-2.83-9.583-1.9.235-3.457,4.742-.089,17.656,5.335,20.45,17.289,50.627,55.18,86.191,0,0,57.161-3.1,92.854-23.278s61.282-43.914,61.329-80.656C342.761,516.942,321.742,478.935,259.666,490.425Z" transform="translate(-101.38 -241.909)" fill="#175732"/>
    <path id="Caminho_216" data-name="Caminho 216" d="M253.683,505.561s42.189-16.511,63.8,11.169,10.743,67.926-24.95,95.12S192.5,643.718,192.5,643.718s-64.587-45.162-59.73-117.033,67.5-63.13,67.5-63.13S244.7,465.74,253.683,505.561Z" transform="translate(-101.509 -242.404)" fill="#ffcf00"/>
    <path id="Caminho_217" data-name="Caminho 217" d="M249.96,521.267s34.745-13.6,52.542,9.2,8.848,55.942-20.547,78.338-82.387,26.245-82.387,26.245-53.192-37.194-49.193-96.384,55.591-51.992,55.591-51.992S242.561,488.473,249.96,521.267Z" transform="translate(-103.537 -245.066)" fill="#77c19b"/>
    <path id="Caminho_218" data-name="Caminho 218" d="M245.018,536.173s26.977-10.558,40.8,7.142,6.87,43.436-15.954,60.825-63.968,20.378-63.968,20.378-41.3-28.88-38.195-74.837,43.163-40.369,43.163-40.369S239.274,510.71,245.018,536.173Z" transform="translate(-105.532 -247.673)" fill="#59ab32"/>
    <path id="Caminho_219" data-name="Caminho 219" d="M241.151,547.968s20.032-7.84,30.292,5.3,5.1,32.252-11.846,45.164-47.5,15.131-47.5,15.131S181.432,592.123,183.738,558s32.05-29.974,32.05-29.974S236.885,529.061,241.151,547.968Z" transform="translate(-107.379 -249.829)" fill="#f5740e"/>
    <path id="Caminho_220" data-name="Caminho 220" d="M236.706,561.771s12.365-4.839,18.7,3.273,3.149,19.908-7.312,27.878-29.319,9.34-29.319,9.34-18.929-13.236-17.505-34.3,19.783-18.5,19.783-18.5S234.072,550.1,236.706,561.771Z" transform="translate(-109.398 -252.298)" fill="#ffcf00"/>
    <path id="Caminho_221" data-name="Caminho 221" d="M430.388,593.194a4.648,4.648,0,0,0,.919.066c3.734,0,3.734-3.459,3.734-7.12,0-3.087-.113-5.351-.233-7.746-.127-2.557-.259-5.2-.259-9.06a13.751,13.751,0,0,1,.24-3.312,2.6,2.6,0,0,1,.171.33,1.2,1.2,0,0,0,.171.312,24.3,24.3,0,0,1,2.183,4.553c.387.964.787,1.961,1.244,2.92a43.461,43.461,0,0,1,1.664,4.176c.4,1.125.821,2.289,1.346,3.506.2.468.419,1.087.675,1.8,1.292,3.618,3.246,9.084,6.916,9.084a3.438,3.438,0,0,0,1.075-.233c.158-.053.314-.105.469-.144,2.616-.623,3.545-5.017,3.545-8.59,0-4.115.046-8.179.092-12.109.045-3.953.092-8.042.092-12.206,0-.392-.011-.971-.023-1.64-.018-.909-.038-1.984-.038-2.977,0-3.957-1.217-6.137-3.427-6.137-2.754,0-3.55,1.363-3.55,6.075,0,2.606.058,5.083.12,7.708s.126,5.36.126,8.236c0,1.9-.054,3.852-.112,5.919l-.012.421c0,.107.011.258.024.436.017.232.037.513.037.795,0,.036,0,.071,0,.1-.207-.335-.585-1.006-1.253-2.354l-.049-.1c-.853-1.634-1.966-4.463-3.255-7.737-4.062-10.318-7.409-18.211-10.42-18.211l-.4,0c-3.066.341-3.345,2.9-3.64,5.614-.512,5.32-.556,10.624-.556,15.6v4.8c0,.613-.015,1.2-.03,1.777s-.031,1.175-.031,1.793c0,.552-.012,1.228-.027,1.972-.017.915-.035,1.934-.035,2.953v2.339C427.879,590.022,428.073,592.922,430.388,593.194Zm89.311-6.6c-3.384,0-3.58-3.184-3.806-6.87l-.031-.495c-.073-1.008-.713-2.915-2.626-2.915-2.655,0-4.043,2.684-4.043,5.336,0,6.7,4.67,12.353,10.2,12.353,4.866,0,6.821-.859,9.1-4a12.541,12.541,0,0,0,2.021-7.306c0-7.414-4.735-11.767-8.913-15.608-3.013-2.77-5.615-5.161-5.615-8.092,0-1.811,1.4-4.022,3.037-4.022,3.344,0,3.344,2.536,3.344,3.9,0,2.893,1.846,3.919,3.427,3.919,1.419,0,2.935-1.013,2.935-3.858,0-4.749-1.138-10.2-10.015-10.2-5.287,0-9.275,4.676-9.275,10.876,0,5.229,3.448,8.019,6.781,10.718,3.445,2.789,7.008,5.673,7.008,11.32C523.228,583.483,522.485,586.59,519.7,586.59ZM390.43,601.455a20.3,20.3,0,0,0-3.737-.32H385.54c-.73.046-2.955.188-3.17,2.037-.173,1.562-.375,3.872-.425,5.664-.052,1.764-.132,3.513-.209,5.2-.134,2.95-.26,5.737-.26,8.659,0,1.233,0,2.508.094,3.77v.4c.024.809.071,1.607.118,2.4s.094,1.577.118,2.385c.058,1.227.694,2.466,1.979,2.466.234,0,.467.011.695.022s.453.022.666.022a11.289,11.289,0,0,0,10.023-5.9,24.768,24.768,0,0,0,3.029-12.542c0-.872-.094-4.05-.242-5.08C397.01,605.3,394.55,602.29,390.43,601.455Zm-1.992,26.4v0c-.047-.609-.047-1.191-.047-1.754v-4.528c-.065-1.866-.1-3.177-.132-4.4-.038-1.441-.073-2.76-.15-4.732-.045-.654-.045-1.276-.045-1.935,0-.638.011-1.08.023-1.525s.023-.922.023-1.6V606.7c0-.6.076-.6.258-.6,4.621.158,4.978,3.811,4.978,8.952C393.346,619.653,390.527,627.713,388.438,627.853Zm29.835-20.06a2.869,2.869,0,0,0-1.432.3c-1.152-2.745-3.408-6.82-6.638-6.82-6.652,0-10.331,10.664-10.331,18.036,0,2.746.138,5.853,1.168,8.094,2.1,4.405,4.818,6.547,8.319,6.547,5.776,0,8.829-6.253,8.829-18.081a26.225,26.225,0,0,0-.158-2.67,2.855,2.855,0,0,0,2.011-2.1,4.143,4.143,0,0,0,.258-1.26A1.925,1.925,0,0,0,418.272,607.793Zm-8.539-1.283c.77,0,1.651,1.968,2.171,4.017a5.985,5.985,0,0,1-2.5.572,15.579,15.579,0,0,1-1.915-.166c-.218-.027-.444-.056-.682-.084C407.747,608.369,409.107,606.511,409.733,606.511Zm3.134,9.354v.983c0,7.3-1.314,11.32-3.7,11.32-2.59,0-3.51-4.485-3.51-8.326a20.586,20.586,0,0,1,.308-3.746,6.84,6.84,0,0,0,2.076.289,14.282,14.282,0,0,0,4.833-.925C412.868,615.579,412.868,615.713,412.868,615.865Zm-6.25-22.684c1.958,0,3.6-.861,3.6-3.68,0-.861-.078-1.879-.078-2.584,0-1.958-.157-3.758-.157-5.637,0-2.662-.157-4.542-.157-7.36,0-11.51.7-21.141.7-32.024,0-2.115-.079-3.759-2.349-3.759-4.306,0-5.4,2.663-5.4,6.03,0,11.04-.469,18.478-.469,29.284,0,.47.078,1.018.078,1.566-1.488-3.758-2.662-8.926-3.915-13.311-1.488-5.168-2.5-9.475-4.072-14.564-.782-2.663-2.818-8.848-7.282-8.848-4.227,0-4.542,9.475-4.542,16.6,0,10.57-.235,20.436-.235,30.693,0,3.367.549,7.518,5.4,7.518,1.175,0,3.288-.94,3.288-3.915,0-11.041-.157-18.792-.157-28.267v-.391a.5.5,0,0,1,.549-.548.591.591,0,0,1,.312.078c.392.861.861,1.879,1.175,2.74,2.662,10.962,3.68,15.9,6.89,24.743C400.275,589.031,402.624,593.1,406.618,593.18Zm14.462-43.3a3.3,3.3,0,0,0-.813-.074c-4.877,0-5.173,6.5-5.173,11.9v3.251c-.073,5.173,0,12.71-.148,17.883,0,.886-.073,1.625-.073,2.512a25.946,25.946,0,0,0,.221,4.138c.37,2.364,1.183,3.769,3.843,3.842h.295c3.991,0,4.138-2.439,4.138-6.8v-.887c0-6.577-.073-14.409-.073-21.725,0-.886.073-2.364.073-4.065C423.37,555.717,423.075,550.248,421.08,549.879Zm-.37-10.64a.441.441,0,0,0-.3-.074c-2.439,0-4.064,2.808-4.064,5.025a4.776,4.776,0,0,0,.3,1.477,3.134,3.134,0,0,0,3.1,2.069,3.877,3.877,0,0,0,1.257-.148,3.8,3.8,0,0,0,2.364-2.809,5.2,5.2,0,0,0,.074-1.107C423.444,541.751,422.705,539.387,420.71,539.239ZM498.8,606.421c1.778,0,2.208,1.321,2.661,3.335.333,1.48.677,3.01,2.218,3.01,2.432,0,3.294-1.46,3.294-2.711,0-5.187-3.371-9.1-7.844-9.1-5.089,0-8.642,3.08-8.642,7.491,0,4.226,3.24,7.553,6.1,10.488,2.219,2.279,4.316,4.432,4.316,6.491,0,2.786-.732,2.786-2.337,2.786a2.976,2.976,0,0,1-2.712-2.876,5.932,5.932,0,0,1,.145-1.2,8.175,8.175,0,0,0,.183-1.658c0-1.684-1.788-2.442-3.058-2.442-1.83,0-2.966,1.295-2.966,3.38,0,.135-.01.3-.019.474-.013.229-.027.481-.027.733,0,6.515,2.9,9.681,8.876,9.681,3.846,0,7.985-2.358,7.985-7.536,0-4.264-2.023-8.312-6.183-12.373-.481-.467-.977-.915-1.46-1.351-1.57-1.416-3.055-2.754-3.055-4.059C496.279,607.188,497.034,606.421,498.8,606.421Zm13.873-4.75c-3.249,0-3.27,4.661-3.287,8.405,0,.358,0,.707-.007,1.045-.041,2.624-.115,4.739-.187,6.784-.1,2.734-.189,5.316-.189,8.816,0,3.462.28,7,2.354,7,3.129,0,3.17-1.711,3.226-4.08.012-.509.026-1.072.067-1.707.042-2.367.173-5.568.3-8.663.154-3.792.313-7.713.313-10.155,0-1.07-.052-2.223-.095-3.158C515.067,604.477,514.412,601.672,512.676,601.672Zm-7.012-44.286a2.989,2.989,0,0,0-1.684.4c-1.355-3.746-4.007-9.308-7.806-9.308-7.821,0-12.148,14.555-12.148,24.615,0,3.748.163,7.99,1.374,11.047,2.465,6.011,5.665,8.934,9.781,8.934,6.793,0,10.384-8.533,10.384-24.676,0-1.334-.089-2.513-.186-3.644a3.73,3.73,0,0,0,2.364-2.87,6.424,6.424,0,0,0,.3-1.719C508.048,558.5,507.089,557.386,505.664,557.386Zm-10.041-1.75c.906,0,1.941,2.686,2.553,5.482a6.239,6.239,0,0,1-2.939.781,15.956,15.956,0,0,1-2.253-.227c-.256-.038-.522-.076-.8-.115C493.287,558.173,494.887,555.636,495.623,555.636Zm3.686,12.766v1.341c0,9.963-1.545,15.449-4.348,15.449-3.046,0-4.127-6.121-4.127-11.363a32.532,32.532,0,0,1,.362-5.113,7,7,0,0,0,2.441.4,14.773,14.773,0,0,0,5.683-1.263C499.309,568.012,499.309,568.2,499.309,568.4Zm28.549,59.005c-.442,0-.9.021-1.38.043s-.984.046-1.482.046c-.392,0-.819-.112-.836-.283,0-1.6-.036-3.351-.071-5.048-.035-1.675-.071-3.407-.071-4.961,0-1.518.045-3.015.093-4.6.047-1.57.1-3.2.1-4.828V606.7c0-.319.012-.637.024-.944s.023-.579.023-.843v-.536c0-1.459-.195-2.666-2.59-2.666a3.64,3.64,0,0,0-3.193,2.992,55.842,55.842,0,0,0-.659,10.187c-.007,1.4-.014,2.843-.052,4.5v.626c0,.583.012,1.168.024,1.751s.023,1.156.023,1.734v.833c-.017.429-.038.844-.06,1.255-.04.769-.081,1.565-.081,2.425,0,.448,0,.957.049,1.51.216,2.579,1.6,4.059,3.808,4.059.937,0,2.032.047,2.912.085.62.027,1.142.05,1.451.05a2.821,2.821,0,0,0,.573-.029c.123-.019.342-.05.875-.107,1.823-.166,3.771-1.14,3.771-3.379C531.105,627.727,529.37,627.408,527.858,627.408ZM442.1,613.234a3.157,3.157,0,0,0-.487-.21,2.6,2.6,0,0,1-.517-.234.423.423,0,0,1,.07-.082,9.083,9.083,0,0,0,2.172-5.824c0-1.4,0-5.66-8.971-5.66-.273,0-.593-.009-.944-.019-.433-.012-.911-.026-1.45-.026-2.3,0-4.654.189-4.654,1.593,0,2.152-.036,4.417-.071,6.607-.035,2.16-.07,4.392-.07,6.484,0,.806.012,1.6.024,2.4s.024,1.582.024,2.384c0,1.929-.065,3.327-.133,4.808-.073,1.588-.149,3.23-.149,5.648,0,1.857,1.723,2.8,5.122,2.8a33.218,33.218,0,0,0,7.2-.954c5.456-1.5,8.341-5.243,8.341-10.827C447.6,617.656,445.495,614.257,442.1,613.234Zm-9.882-6.886c0-.474.084-.551.6-.551,2.627,0,5.434.873,5.434,3.322,0,1.861-3.194,3.455-5.807,3.455C432.266,610.342,432.215,608.93,432.215,606.348Zm1.3,21.551h-.1c-.052-.026-.315-.248-.315-2.115,0-1.338-.024-2.607-.048-3.859-.023-1.215-.046-2.415-.046-3.647v-.76a.772.772,0,0,1,.032-.3,2.237,2.237,0,0,1,.823-.076c.42-.019.85-.062,1.284-.105.574-.057,1.168-.118,1.745-.118,3.418,0,5.011,1.95,5.011,6.181C441.908,627.9,437.833,627.9,433.519,627.9Zm28.993-8c-.482-.648-.95-1.279-1.393-1.889.036-.015.081-.031.118-.045.1-.038.221-.082.348-.143a12.636,12.636,0,0,0,6-4.945,5.538,5.538,0,0,0,.674-2.953,9.713,9.713,0,0,0-.794-3.852c-1.1-2.268-3.944-4.166-7.248-4.837a28.677,28.677,0,0,0-4.495-.276h-1.547a9.664,9.664,0,0,0-4.026.555c-.644.395-.957,1.377-.957,3v.179q0,3.671.023,7.374.019,3.736.024,7.505c0,2.458,0,5-.047,7.551v.358c0,.312-.011.651-.021,1.013-.013.415-.026.857-.026,1.31,0,1.391.125,3.044,1.113,3.483a4.4,4.4,0,0,0,1.476.255c2.3,0,3.153-.625,3.153-2.308,0-1.535-.025-2.905-.049-4.244-.022-1.272-.045-2.516-.045-3.843a37.483,37.483,0,0,1,.124-3.787,17.677,17.677,0,0,1,1.124,1.661c.264.422.513.821.742,1.131.843,1.143,1.627,2.285,2.385,3.391a56.058,56.058,0,0,0,5.9,7.591,2.61,2.61,0,0,0,1.913.721,2.878,2.878,0,0,0,1.345-.328,2.377,2.377,0,0,0,1.1-2.025,1.135,1.135,0,0,0-.081-.481C468,627.3,465.088,623.366,462.512,619.9Zm-2.8-7.207a15.568,15.568,0,0,1-4.8,1.6c-.056-.716-.118-2.493-.118-4.46a23.434,23.434,0,0,1,.165-3.5h.249a17.185,17.185,0,0,1,3.9.381c1.276.419,3.175,1.607,3.175,3.164,0,1.119-1.177,1.891-2.122,2.51C460,612.492,459.85,612.593,459.709,612.69Zm29.435,16.668c-.888-4.156-1.663-8.611-2.414-12.92-.632-3.63-1.285-7.384-2-10.9l-.018-.083c-.4-1.869-1.075-4.994-3.5-4.994a3.116,3.116,0,0,0-2.283,1.087,11.8,11.8,0,0,0-1.316,2.736,170.943,170.943,0,0,0-6.82,25.89,9.186,9.186,0,0,0-.146,1.549c0,1.523.862,2.263,2.636,2.263,3.38,0,3.67-4.467,3.81-6.642,0-.2.047-.667.471-.734a13.644,13.644,0,0,1,2.028-.019,23.458,23.458,0,0,0,2.7-.066.464.464,0,0,1,.418.35c.145.938.291,1.643.445,2.389.1.474.2.967.307,1.553.384,2.133,1.491,3.215,3.287,3.215,1.044,0,2.777-1.14,2.777-2.353a6.72,6.72,0,0,0-.273-1.871C489.219,629.666,489.18,629.515,489.144,629.358Zm-7-8.444a.111.111,0,0,1-.108.111,35.176,35.176,0,0,1-4.1.305v-.112c.545-3.268,1.193-5.968,1.88-8.826.209-.871.423-1.76.637-2.68.71,3.47,1.223,7.386,1.687,11.068Zm-10.088-44.4c.235,0,.389,0,.389.636v2.031c0,1.578.058,6.531.187,8.342.048.422.068.89.087,1.342.081,1.885.171,4.023,2.419,4.023,3.5-.05,5.147-.605,5.147-5.459,0-1.042,0-2.222-.062-3.632v-9.357c0-3.075,0-5.98-.123-8.137-.093-2.337-.139-4.729-.185-7.043s-.092-4.712-.185-7.058c-.072-1.367-.782-3.535-2.38-3.535a3.721,3.721,0,0,0-3.215,2.2,19.051,19.051,0,0,0-1.5,8.558V568.1c0,.36.017.72.033,1.063.015.3.028.587.028.846,0,1.176-.222,1.313-.389,1.313l-.073.009a31.391,31.391,0,0,1-5.283.544h-.369c-1.181,0-1.722-.123-1.807-.849-.121-1.217-.121-3.7-.121-4.9v-.615c0-1.554-.079-3.111-.156-4.616-.074-1.476-.152-3-.152-4.5,0-.3.012-.671.026-1.083.017-.52.035-1.1.035-1.686,0-2.559-1.259-4.72-2.749-4.72-3.365,0-3.365,3.989-3.365,6.629v3.94c0,1.89.028,4.209.058,6.663.032,2.538.065,5.162.065,7.372v.307c0,2.131-.062,4.3-.122,6.4v.065c0,1.745.056,3.45.111,5.1.027.809.054,1.614.073,2.426l.011.193c.116,2.175.26,4.881,2.986,4.881,1.921,0,3.858-1,3.858-3.242,0-1.567-.063-3.581-.122-5.529-.061-1.971-.124-4.011-.124-5.614,0-.581.237-.828.844-.883a29.628,29.628,0,0,0,4.717-.8l1.138-.259A.643.643,0,0,1,472.056,576.516Z" transform="translate(-130.105 -251.135)" fill="#175732"/>
  </g>
</svg>
