<svg xmlns="http://www.w3.org/2000/svg" width="12.828" height="9.214" viewBox="0 0 12.828 9.214">
  <path id="Caminho_247" data-name="Caminho 247" d="M2225.444,2257.013l3.2,3.2,6.8-6.8" transform="translate(-2224.03 -2251.999)" fill="none" stroke="#f3f5f1" stroke-linecap="round" stroke-linejoin="round" stroke-width="2"/>
</svg>
