<svg xmlns="http://www.w3.org/2000/svg" width="74.24" height="117.368" viewBox="0 0 74.24 117.368">
  <g id="Grupo_760" data-name="Grupo 760" transform="translate(-11467 -4294.414)">
    <path id="Caminho_405" data-name="Caminho 405" d="M-1312.434,394.037c-1.268.235-2.4.455-3.526.651-1.623.281-3.256.508-4.872.824a23.008,23.008,0,0,0-6.789,2.827c-2.687,1.511-5.294,3.163-7.931,4.762a1.227,1.227,0,0,1-1.751-.278,1.181,1.181,0,0,1,.388-1.685c2.507-1.565,5-3.166,7.569-4.618a39.436,39.436,0,0,1,5.51-2.607,32.831,32.831,0,0,1,4.725-1.15c2.361-.5,4.745-.911,7.092-1.471a4.38,4.38,0,0,0,2.038-1.107,2.711,2.711,0,0,0-.156-3.374,5.246,5.246,0,0,0-3.66-2.025,15.439,15.439,0,0,0-6.811.45c-3.329.932-6.611,2.031-9.912,3.061a8.242,8.242,0,0,0-1.033.346c-1.925.9-3.937.634-5.94.461a44.817,44.817,0,0,0-13.481.867,43.557,43.557,0,0,0-9.9,3.269,15.349,15.349,0,0,0-4.12,2.7,1.225,1.225,0,0,1-1.737,0,1.155,1.155,0,0,1,.044-1.675,14.624,14.624,0,0,1,4.038-2.823,46.816,46.816,0,0,1,13.9-4.35,47.981,47.981,0,0,1,12.7-.309,8.044,8.044,0,0,0,3.661-.41c2.065-.755,4.176-1.384,6.231-2.16a3.384,3.384,0,0,0,1.308-1.147c1.619-2.1,3.154-4.261,4.8-6.339,1.045-1.323,2.2-2.563,3.357-3.791a4.252,4.252,0,0,1,2.526-1.157,4.041,4.041,0,0,1,1.086.026c.336.039.732.288.978.176.283-.13.42-.565.639-.852a50.873,50.873,0,0,1,3.7-4.744,10.539,10.539,0,0,1,7.931-3.207c2.1.024,2.905,1.73,2.8,3.4a1.921,1.921,0,0,0,.059.743,4.976,4.976,0,0,1-.053,3.277,50.886,50.886,0,0,1-4.095,9.131c-1.927,3.515-3.978,6.963-6.014,10.418a97.627,97.627,0,0,1-8.543,12.191,50.581,50.581,0,0,1-4.5,4.664,6.977,6.977,0,0,1-4.149,1.7c-3.406.372-6.815.836-10.234.95-5.594.187-11.2.154-16.795.158-2.809,0-5.618-.123-8.428-.183-.937-.02-1.5-.467-1.494-1.215s.587-1.193,1.518-1.177c5.1.089,10.211.268,15.315.233,4.909-.033,9.819-.227,14.723-.471a20.95,20.95,0,0,0,6.748-1.161,7.3,7.3,0,0,0,2.612-1.8c1.843-2.022,3.576-4.147,5.29-6.282C-1314.158,396.606-1313.358,395.345-1312.434,394.037Zm4.8-7.61c.339-.592.618-1.091.908-1.582a100.67,100.67,0,0,0,6.874-13.316,10.529,10.529,0,0,0,.664-2.724c.1-.848-.167-.967-.924-.579a13.489,13.489,0,0,0-4.423,3.955c-1.235,1.6-2.3,3.334-3.441,5.009l-3.832,5.625A6.947,6.947,0,0,1-1307.636,386.427Zm-9.051-4.194c.7,0,1.241.037,1.771-.016a1.1,1.1,0,0,0,.729-.352c1.824-2.626,3.658-5.246,5.411-7.92,2.233-3.407,4.672-6.576,8.532-8.357a2.157,2.157,0,0,0-.249-.019,8.549,8.549,0,0,0-4.788,1.8,19.6,19.6,0,0,0-3.976,4.743c-1.53,2.179-2.988,4.409-4.544,6.569C-1314.657,379.874-1315.649,380.966-1316.687,382.233Zm-4.961.614.107.178c.5-.184,1.163-.224,1.47-.576,1.756-2.012,3.442-4.087,5.12-6.166.507-.628.915-1.337,1.417-2.081a2.258,2.258,0,0,0-2.026.93c-1.433,1.7-2.823,3.431-4.2,5.17C-1320.421,381.128-1321.022,382-1321.648,382.847Z" transform="translate(12834.073 4001.964)" fill="#2a5537"/>
    <path id="Caminho_406" data-name="Caminho 406" d="M-1347.374,308.242c1.433-.254,2.816-.5,4.2-.746a37.1,37.1,0,0,0,4.974-.961,34.147,34.147,0,0,0,5.693-2.47c2.76-1.507,5.412-3.213,8.1-4.843a1.232,1.232,0,0,1,1.755.252,1.188,1.188,0,0,1-.413,1.727c-2.189,1.389-4.348,2.834-6.61,4.094a49.04,49.04,0,0,1-6.473,3.116,39.821,39.821,0,0,1-5.485,1.273c-2.294.507-4.612.92-6.876,1.536-2.433.661-2.312,2.708-1.3,4.258a5.045,5.045,0,0,0,3.642,2.045,17.96,17.96,0,0,0,6.88-.431,116.328,116.328,0,0,0,11.54-3.631,8.235,8.235,0,0,1,3.41-.4,50.769,50.769,0,0,0,11.486-.046,51.692,51.692,0,0,0,8.81-1.985,28.423,28.423,0,0,0,7.51-3.391,15.618,15.618,0,0,0,1.549-1.245,1.208,1.208,0,0,1,1.821-.016,1.168,1.168,0,0,1-.15,1.751,21.054,21.054,0,0,1-7.219,4.219,51.3,51.3,0,0,1-11.962,3.058,49.829,49.829,0,0,1-11.359.121,8.122,8.122,0,0,0-3.719.417c-2.061.762-4.175,1.38-6.23,2.157a3.4,3.4,0,0,0-1.3,1.164c-1.616,2.1-3.156,4.256-4.791,6.339-.975,1.243-2.052,2.41-3.127,3.571a4.215,4.215,0,0,1-2.836,1.35,10.846,10.846,0,0,1-1.966-.213c-.811,1.132-1.723,2.391-2.621,3.66a11.619,11.619,0,0,1-7.826,5.021,9.366,9.366,0,0,1-1.979.115,2.526,2.526,0,0,1-2.56-2.253c-.178-.976-.28-1.968-.38-2.956a8.766,8.766,0,0,1,.995-4.21,106.541,106.541,0,0,1,7.043-13.667c.735-1.25,1.488-2.489,2.238-3.73A109.494,109.494,0,0,1-1344.3,300a45.327,45.327,0,0,1,4.56-4.7,8.731,8.731,0,0,1,4.848-1.842,98.517,98.517,0,0,1,13.911-.932c3.54-.028,7.08-.1,10.619-.074,3.474.025,6.947.142,10.42.23a1.206,1.206,0,0,1,1.291,1.288,1.261,1.261,0,0,1-1.386,1.125c-3.474-.086-6.946-.2-10.42-.235-3.84-.034-7.681-.029-11.52.044a103.874,103.874,0,0,0-12.5.878,9.679,9.679,0,0,0-6.03,3.352,82.346,82.346,0,0,0-6.708,8.748A2.626,2.626,0,0,0-1347.374,308.242Zm-4.934,7.687c-.129.172-.227.282-.3.406a123.647,123.647,0,0,0-6.706,12.522,35.119,35.119,0,0,0-1.448,4.234c-.1.338.107.769.173,1.157a4.62,4.62,0,0,0,1.054-.326,15.353,15.353,0,0,0,4.447-4.217c1.373-1.872,2.584-3.863,3.887-5.787,1-1.476,2.036-2.929,3.071-4.415A6.929,6.929,0,0,1-1352.308,315.929Zm-7.359,20.79a8.243,8.243,0,0,0,5-1.769c1.863-1.407,3.013-3.42,4.363-5.256,1.718-2.336,3.363-4.726,5.072-7.069.611-.838,1.315-1.607,2.073-2.525-.707,0-1.281-.036-1.847.016a1.137,1.137,0,0,0-.725.353c-.584.733-1.137,1.493-1.658,2.273-1.671,2.5-3.247,5.064-5,7.5C-1354.329,332.92-1356.5,335.395-1359.667,336.719Zm13.184-8.621a2.265,2.265,0,0,0,2.1-.91c1.434-1.7,2.824-3.429,4.206-5.168.657-.827,1.258-1.7,1.985-2.687-.782.2-1.417.106-1.913.738-1.173,1.5-2.463,2.9-3.654,4.383C-1344.681,325.6-1345.521,326.8-1346.483,328.1Z" transform="translate(12834.073 4001.964)" fill="#2a5537"/>
    <path id="Caminho_407" data-name="Caminho 407" d="M-1327.322,341.479s-7.512-11.423-20.54-5.1a.108.108,0,0,0-.049.152,14.984,14.984,0,0,1,7.356-1.138s9.877.486,11.874,9.337c0,0,.531-.207,1.4-.44a17.378,17.378,0,0,1,4.855-.644,9.764,9.764,0,0,1,7.924,3.567c4.8,6.153,2.388,15.1-5.546,21.145s-22.237,7.084-22.237,7.084-11.454-8.011-13.131-21.107c-.407.1-.715,1.122.014,3.916,1.185,4.546,3.843,11.254,12.266,19.16,0,0,12.706-.69,20.641-5.175s13.622-9.762,13.633-17.929C-1308.851,347.373-1313.523,338.925-1327.322,341.479Z" transform="translate(12834.073 4001.964)" fill="#2a5537" stroke="#2a5537" stroke-miterlimit="10" stroke-width="2"/>
    <path id="Caminho_408" data-name="Caminho 408" d="M-1314.5,347.216a9.764,9.764,0,0,0-7.924-3.567,17.378,17.378,0,0,0-4.855.644c-.872.233-1.4.44-1.4.44-2-8.851-11.874-9.337-11.874-9.337a14.984,14.984,0,0,0-7.356,1.138c-3.535,1.569-7.122,5.1-7.649,12.895a25.166,25.166,0,0,0,.147,4.909c1.677,13.1,13.131,21.107,13.131,21.107s14.3-1.039,22.237-7.084S-1309.695,353.369-1314.5,347.216Z" transform="translate(12834.073 4001.964)" fill="#e1c5e0"/>
  </g>
</svg>
