<svg xmlns="http://www.w3.org/2000/svg" width="13.035" height="10.591" viewBox="0 0 13.035 10.591">
  <g id="twitter" transform="translate(0 -48)">
    <g id="Grupo_92" data-name="Grupo 92" transform="translate(0 48)">
      <path id="Caminho_44" data-name="Caminho 44" d="M13.035,49.254a5.572,5.572,0,0,1-1.54.422A2.657,2.657,0,0,0,12.671,48.2a5.341,5.341,0,0,1-1.695.647,2.672,2.672,0,0,0-4.623,1.827,2.752,2.752,0,0,0,.062.609,7.564,7.564,0,0,1-5.508-2.8,2.673,2.673,0,0,0,.821,3.572A2.639,2.639,0,0,1,.521,51.73v.029a2.685,2.685,0,0,0,2.141,2.626,2.667,2.667,0,0,1-.7.088,2.363,2.363,0,0,1-.506-.046,2.7,2.7,0,0,0,2.5,1.862A5.37,5.37,0,0,1,.64,57.428,5.005,5.005,0,0,1,0,57.392a7.523,7.523,0,0,0,4.1,1.2,7.554,7.554,0,0,0,7.606-7.6c0-.118,0-.232-.01-.345A5.331,5.331,0,0,0,13.035,49.254Z" transform="translate(0 -48)" fill="#f3f5f1"/>
    </g>
  </g>
</svg>
