<svg xmlns="http://www.w3.org/2000/svg" width="26.071" height="45.071" viewBox="0 0 26.071 45.071">
  <g id="Grupo_616" data-name="Grupo 616" transform="translate(-1540.464 -813.216)">
    <g id="Grupo_525" data-name="Grupo 525" transform="translate(1544 816.751)">
      <line id="Linha_36" data-name="Linha 36" x1="19" y1="19" fill="none" stroke="#175732" stroke-linecap="round" stroke-width="5"/>
      <line id="Linha_37" data-name="Linha 37" x1="19" y2="19" transform="translate(0 19)" fill="none" stroke="#175732" stroke-linecap="round" stroke-width="5"/>
    </g>
  </g>
</svg>
