<svg xmlns="http://www.w3.org/2000/svg" width="17.703" height="16.888" viewBox="0 0 17.703 16.888">
  <g id="star" transform="translate(0 -11.796)">
    <g id="Grupo_199" data-name="Grupo 199" transform="translate(0 11.796)">
      <path id="Caminho_89" data-name="Caminho 89" d="M17.678,18.209a.518.518,0,0,0-.419-.353l-5.488-.8L9.317,12.085a.519.519,0,0,0-.93,0L5.932,17.058l-5.488.8a.519.519,0,0,0-.287.885l3.971,3.871-.937,5.466a.519.519,0,0,0,.752.547l4.909-2.581,4.909,2.581a.519.519,0,0,0,.753-.547l-.938-5.466,3.972-3.871A.518.518,0,0,0,17.678,18.209Z" transform="translate(0 -11.796)" fill="#fff"/>
    </g>
  </g>
</svg>
